============================================================
{
  "contributors": null,
  "coordinates": null,
  "created_at": "Sat Sep 22 14:32:45 +0000 2018",
  "entities": {
    "hashtags": [
      {
        "indices": [
          26,
          34
        ],
        "text": "Yabanc\u0131"
      },
      {
        "indices": [
          76,
          82
        ],
        "text": "Dolar"
      }
    ],
    "symbols": [],
    "urls": [
      {
        "display_url": "halilbuhur.com/haftalik-yaban\u2026",
        "expanded_url": "https://halilbuhur.com/haftalik-yabanci-takasinda-payi-artan-ve-dusen-hisseler-dolar-bazinda-9.html",
        "indices": [
          93,
          116
        ],
        "url": "https://t.co/niI56rV2Ug"
      }
    ],
    "user_mentions": [
      {
        "id": 370031741,
        "id_str": "370031741",
        "indices": [
          3,
          15
        ],
        "name": "Halil BUHUR",
        "screen_name": "Halil_BUHUR"
      }
    ]
  },
  "favorite_count": 0,
  "favorited": false,
  "geo": null,
  "id": 1043508404948533248,
  "id_str": "1043508404948533248",
  "in_reply_to_screen_name": null,
  "in_reply_to_status_id": null,
  "in_reply_to_status_id_str": null,
  "in_reply_to_user_id": null,
  "in_reply_to_user_id_str": null,
  "is_quote_status": false,
  "lang": "tr",
  "metadata": {
    "iso_language_code": "tr",
    "result_type": "recent"
  },
  "place": null,
  "possibly_sensitive": false,
  "retweet_count": 4,
  "retweeted": false,
  "retweeted_status": {
    "contributors": null,
    "coordinates": null,
    "created_at": "Sat Sep 22 10:43:50 +0000 2018",
    "entities": {
      "hashtags": [
        {
          "indices": [
            9,
            17
          ],
          "text": "Yabanc\u0131"
        },
        {
          "indices": [
            59,
            65
          ],
          "text": "Dolar"
        }
      ],
      "symbols": [],
      "urls": [
        {
          "display_url": "halilbuhur.com/haftalik-yaban\u2026",
          "expanded_url": "https://halilbuhur.com/haftalik-yabanci-takasinda-payi-artan-ve-dusen-hisseler-dolar-bazinda-9.html",
          "indices": [
            76,
            99
          ],
          "url": "https://t.co/niI56rV2Ug"
        }
      ],
      "user_mentions": []
    },
    "favorite_count": 63,
    "favorited": false,
    "geo": null,
    "id": 1043450793498689536,
    "id_str": "1043450793498689536",
    "in_reply_to_screen_name": null,
    "in_reply_to_status_id": null,
    "in_reply_to_status_id_str": null,
    "in_reply_to_user_id": null,
    "in_reply_to_user_id_str": null,
    "is_quote_status": false,
    "lang": "tr",
    "metadata": {
      "iso_language_code": "tr",
      "result_type": "recent"
    },
    "place": null,
    "possibly_sensitive": false,
    "retweet_count": 4,
    "retweeted": false,
    "source": "<a href=\"http://twitter.com\" rel=\"nofollow\">Twitter Web Client</a>",
    "text": "Haftal\u0131k #Yabanc\u0131 Takas\u0131nda Pay\u0131 Artan ve D\u00fc\u015fen Hisseler \n(#Dolar Baz\u0131nda)\n\nhttps://t.co/niI56rV2Ug",
    "truncated": false,
    "user": {
      "contributors_enabled": false,
      "created_at": "Thu Sep 08 10:39:04 +0000 2011",
      "default_profile": false,
      "default_profile_image": false,
      "description": "Official Twitter Account of Halil BUHUR & Founder of https://t.co/bfWpPcsISq & E\u011fitimci & \u0130ktisat\u00e7\u0131 & Y\u00fcksek Lisans \u0130\u015fletme & #Temel #Teknik Analiz & #Buhur25\u00ae",
      "entities": {
        "description": {
          "urls": [
            {
              "display_url": "halilbuhur.com",
              "expanded_url": "https://halilbuhur.com/",
              "indices": [
                53,
                76
              ],
              "url": "https://t.co/bfWpPcsISq"
            }
          ]
        },
        "url": {
          "urls": [
            {
              "display_url": "halilbuhur.com",
              "expanded_url": "https://halilbuhur.com/",
              "indices": [
                0,
                23
              ],
              "url": "https://t.co/bfWpPcsISq"
            }
          ]
        }
      },
      "favourites_count": 87,
      "follow_request_sent": false,
      "followers_count": 62934,
      "following": false,
      "friends_count": 40,
      "geo_enabled": true,
      "has_extended_profile": true,
      "id": 370031741,
      "id_str": "370031741",
      "is_translation_enabled": false,
      "is_translator": false,
      "lang": "tr",
      "listed_count": 604,
      "location": "Izmir - TURKEY",
      "name": "Halil BUHUR",
      "notifications": false,
      "profile_background_color": "C0DEED",
      "profile_background_image_url": "http://abs.twimg.com/images/themes/theme1/bg.png",
      "profile_background_image_url_https": "https://abs.twimg.com/images/themes/theme1/bg.png",
      "profile_background_tile": false,
      "profile_banner_url": "https://pbs.twimg.com/profile_banners/370031741/1506444533",
      "profile_image_url": "http://pbs.twimg.com/profile_images/888129640484675586/-aPeTbfM_normal.jpg",
      "profile_image_url_https": "https://pbs.twimg.com/profile_images/888129640484675586/-aPeTbfM_normal.jpg",
      "profile_link_color": "0084B4",
      "profile_sidebar_border_color": "FFFFFF",
      "profile_sidebar_fill_color": "DDEEF6",
      "profile_text_color": "333333",
      "profile_use_background_image": true,
      "protected": false,
      "screen_name": "Halil_BUHUR",
      "statuses_count": 65641,
      "time_zone": null,
      "translator_type": "regular",
      "url": "https://t.co/bfWpPcsISq",
      "utc_offset": null,
      "verified": false
    }
  },
  "source": "<a href=\"http://twitter.com/download/iphone\" rel=\"nofollow\">Twitter for iPhone</a>",
  "text": "RT @Halil_BUHUR: Haftal\u0131k #Yabanc\u0131 Takas\u0131nda Pay\u0131 Artan ve D\u00fc\u015fen Hisseler \n(#Dolar Baz\u0131nda)\n\nhttps://t.co/niI56rV2Ug",
  "truncated": false,
  "user": {
    "contributors_enabled": false,
    "created_at": "Fri Oct 12 18:19:48 +0000 2012",
    "default_profile": true,
    "default_profile_image": false,
    "description": "",
    "entities": {
      "description": {
        "urls": []
      }
    },
    "favourites_count": 4855,
    "follow_request_sent": false,
    "followers_count": 53,
    "following": false,
    "friends_count": 748,
    "geo_enabled": false,
    "has_extended_profile": false,
    "id": 876152443,
    "id_str": "876152443",
    "is_translation_enabled": false,
    "is_translator": false,
    "lang": "tr",
    "listed_count": 1,
    "location": "",
    "name": "cihan ak\u00e7e",
    "notifications": false,
    "profile_background_color": "C0DEED",
    "profile_background_image_url": "http://abs.twimg.com/images/themes/theme1/bg.png",
    "profile_background_image_url_https": "https://abs.twimg.com/images/themes/theme1/bg.png",
    "profile_background_tile": false,
    "profile_banner_url": "https://pbs.twimg.com/profile_banners/876152443/1487098899",
    "profile_image_url": "http://pbs.twimg.com/profile_images/831576790435000321/-rR7OwSk_normal.jpg",
    "profile_image_url_https": "https://pbs.twimg.com/profile_images/831576790435000321/-rR7OwSk_normal.jpg",
    "profile_link_color": "1DA1F2",
    "profile_sidebar_border_color": "C0DEED",
    "profile_sidebar_fill_color": "DDEEF6",
    "profile_text_color": "333333",
    "profile_use_background_image": true,
    "protected": false,
    "screen_name": "cihanakce",
    "statuses_count": 4005,
    "time_zone": null,
    "translator_type": "none",
    "url": null,
    "utc_offset": null,
    "verified": false
  }
}
============================================================
{
  "contributors": null,
  "coordinates": null,
  "created_at": "Sat Sep 22 14:32:32 +0000 2018",
  "entities": {
    "hashtags": [
      {
        "indices": [
          19,
          35
        ],
        "text": "AcuerdoConElFMI"
      },
      {
        "indices": [
          129,
          135
        ],
        "text": "dolar"
      }
    ],
    "symbols": [],
    "urls": [],
    "user_mentions": [
      {
        "id": 967120627441291264,
        "id_str": "967120627441291264",
        "indices": [
          3,
          17
        ],
        "name": "La Cuarta V\u00eda",
        "screen_name": "lacuartaviaok"
      }
    ]
  },
  "favorite_count": 0,
  "favorited": false,
  "geo": null,
  "id": 1043508349550166016,
  "id_str": "1043508349550166016",
  "in_reply_to_screen_name": null,
  "in_reply_to_status_id": null,
  "in_reply_to_status_id_str": null,
  "in_reply_to_user_id": null,
  "in_reply_to_user_id_str": null,
  "is_quote_status": false,
  "lang": "es",
  "metadata": {
    "iso_language_code": "es",
    "result_type": "recent"
  },
  "place": null,
  "retweet_count": 1,
  "retweeted": false,
  "retweeted_status": {
    "contributors": null,
    "coordinates": null,
    "created_at": "Sat Sep 22 14:30:01 +0000 2018",
    "entities": {
      "hashtags": [
        {
          "indices": [
            0,
            16
          ],
          "text": "AcuerdoConElFMI"
        }
      ],
      "symbols": [],
      "urls": [
        {
          "display_url": "twitter.com/i/web/status/1\u2026",
          "expanded_url": "https://twitter.com/i/web/status/1043507713987112960",
          "indices": [
            111,
            134
          ],
          "url": "https://t.co/2VAAGZu2u2"
        }
      ],
      "user_mentions": []
    },
    "favorite_count": 0,
    "favorited": false,
    "geo": null,
    "id": 1043507713987112960,
    "id_str": "1043507713987112960",
    "in_reply_to_screen_name": null,
    "in_reply_to_status_id": null,
    "in_reply_to_status_id_str": null,
    "in_reply_to_user_id": null,
    "in_reply_to_user_id_str": null,
    "is_quote_status": false,
    "lang": "es",
    "metadata": {
      "iso_language_code": "es",
      "result_type": "recent"
    },
    "place": null,
    "retweet_count": 1,
    "retweeted": false,
    "source": "<a href=\"https://about.twitter.com/products/tweetdeck\" rel=\"nofollow\">TweetDeck</a>",
    "text": "#AcuerdoConElFMI \nLuego de negociar, la Arg reajustar\u00e1 su pol\u00edtica cambiaria, cambiando la liberalizaci\u00f3n del\u2026 https://t.co/2VAAGZu2u2",
    "truncated": true,
    "user": {
      "contributors_enabled": false,
      "created_at": "Fri Feb 23 19:35:00 +0000 2018",
      "default_profile": false,
      "default_profile_image": false,
      "description": "Un camino alternativo hacia la verdad.",
      "entities": {
        "description": {
          "urls": []
        },
        "url": {
          "urls": [
            {
              "display_url": "lacuartavia.wixsite.com/home",
              "expanded_url": "https://lacuartavia.wixsite.com/home",
              "indices": [
                0,
                23
              ],
              "url": "https://t.co/Dks9bYhS5c"
            }
          ]
        }
      },
      "favourites_count": 50,
      "follow_request_sent": false,
      "followers_count": 609,
      "following": false,
      "friends_count": 191,
      "geo_enabled": false,
      "has_extended_profile": true,
      "id": 967120627441291264,
      "id_str": "967120627441291264",
      "is_translation_enabled": false,
      "is_translator": false,
      "lang": "es",
      "listed_count": 2,
      "location": "Argentina",
      "name": "La Cuarta V\u00eda",
      "notifications": false,
      "profile_background_color": "000000",
      "profile_background_image_url": "http://abs.twimg.com/images/themes/theme1/bg.png",
      "profile_background_image_url_https": "https://abs.twimg.com/images/themes/theme1/bg.png",
      "profile_background_tile": false,
      "profile_banner_url": "https://pbs.twimg.com/profile_banners/967120627441291264/1519424807",
      "profile_image_url": "http://pbs.twimg.com/profile_images/967483039533191168/fixjgKYg_normal.jpg",
      "profile_image_url_https": "https://pbs.twimg.com/profile_images/967483039533191168/fixjgKYg_normal.jpg",
      "profile_link_color": "ABB8C2",
      "profile_sidebar_border_color": "000000",
      "profile_sidebar_fill_color": "000000",
      "profile_text_color": "000000",
      "profile_use_background_image": false,
      "protected": false,
      "screen_name": "lacuartaviaok",
      "statuses_count": 1355,
      "time_zone": null,
      "translator_type": "none",
      "url": "https://t.co/Dks9bYhS5c",
      "utc_offset": null,
      "verified": false
    }
  },
  "source": "<a href=\"http://twitter.com/#!/download/ipad\" rel=\"nofollow\">Twitter for iPad</a>",
  "text": "RT @lacuartaviaok: #AcuerdoConElFMI \nLuego de negociar, la Arg reajustar\u00e1 su pol\u00edtica cambiaria, cambiando la liberalizaci\u00f3n del #dolar, po\u2026",
  "truncated": false,
  "user": {
    "contributors_enabled": false,
    "created_at": "Mon Dec 06 23:12:07 +0000 2010",
    "default_profile": true,
    "default_profile_image": true,
    "description": "",
    "entities": {
      "description": {
        "urls": []
      }
    },
    "favourites_count": 146884,
    "follow_request_sent": false,
    "followers_count": 1540,
    "following": false,
    "friends_count": 1270,
    "geo_enabled": true,
    "has_extended_profile": false,
    "id": 223641204,
    "id_str": "223641204",
    "is_translation_enabled": false,
    "is_translator": false,
    "lang": "es",
    "listed_count": 76,
    "location": "Mar del Plata, Argentina",
    "name": "miguel(mdq)angel",
    "notifications": false,
    "profile_background_color": "C0DEED",
    "profile_background_image_url": "http://abs.twimg.com/images/themes/theme1/bg.png",
    "profile_background_image_url_https": "https://abs.twimg.com/images/themes/theme1/bg.png",
    "profile_background_tile": false,
    "profile_image_url": "http://abs.twimg.com/sticky/default_profile_images/default_profile_normal.png",
    "profile_image_url_https": "https://abs.twimg.com/sticky/default_profile_images/default_profile_normal.png",
    "profile_link_color": "1DA1F2",
    "profile_sidebar_border_color": "C0DEED",
    "profile_sidebar_fill_color": "DDEEF6",
    "profile_text_color": "333333",
    "profile_use_background_image": true,
    "protected": false,
    "screen_name": "epidemia_59",
    "statuses_count": 323697,
    "time_zone": null,
    "translator_type": "none",
    "url": null,
    "utc_offset": null,
    "verified": false
  }
}
============================================================
{
  "contributors": null,
  "coordinates": null,
  "created_at": "Sat Sep 22 14:30:01 +0000 2018",
  "entities": {
    "hashtags": [
      {
        "indices": [
          0,
          16
        ],
        "text": "AcuerdoConElFMI"
      }
    ],
    "symbols": [],
    "urls": [
      {
        "display_url": "twitter.com/i/web/status/1\u2026",
        "expanded_url": "https://twitter.com/i/web/status/1043507713987112960",
        "indices": [
          111,
          134
        ],
        "url": "https://t.co/2VAAGZu2u2"
      }
    ],
    "user_mentions": []
  },
  "favorite_count": 0,
  "favorited": false,
  "geo": null,
  "id": 1043507713987112960,
  "id_str": "1043507713987112960",
  "in_reply_to_screen_name": null,
  "in_reply_to_status_id": null,
  "in_reply_to_status_id_str": null,
  "in_reply_to_user_id": null,
  "in_reply_to_user_id_str": null,
  "is_quote_status": false,
  "lang": "es",
  "metadata": {
    "iso_language_code": "es",
    "result_type": "recent"
  },
  "place": null,
  "retweet_count": 1,
  "retweeted": false,
  "source": "<a href=\"https://about.twitter.com/products/tweetdeck\" rel=\"nofollow\">TweetDeck</a>",
  "text": "#AcuerdoConElFMI \nLuego de negociar, la Arg reajustar\u00e1 su pol\u00edtica cambiaria, cambiando la liberalizaci\u00f3n del\u2026 https://t.co/2VAAGZu2u2",
  "truncated": true,
  "user": {
    "contributors_enabled": false,
    "created_at": "Fri Feb 23 19:35:00 +0000 2018",
    "default_profile": false,
    "default_profile_image": false,
    "description": "Un camino alternativo hacia la verdad.",
    "entities": {
      "description": {
        "urls": []
      },
      "url": {
        "urls": [
          {
            "display_url": "lacuartavia.wixsite.com/home",
            "expanded_url": "https://lacuartavia.wixsite.com/home",
            "indices": [
              0,
              23
            ],
            "url": "https://t.co/Dks9bYhS5c"
          }
        ]
      }
    },
    "favourites_count": 50,
    "follow_request_sent": false,
    "followers_count": 609,
    "following": false,
    "friends_count": 191,
    "geo_enabled": false,
    "has_extended_profile": true,
    "id": 967120627441291264,
    "id_str": "967120627441291264",
    "is_translation_enabled": false,
    "is_translator": false,
    "lang": "es",
    "listed_count": 2,
    "location": "Argentina",
    "name": "La Cuarta V\u00eda",
    "notifications": false,
    "profile_background_color": "000000",
    "profile_background_image_url": "http://abs.twimg.com/images/themes/theme1/bg.png",
    "profile_background_image_url_https": "https://abs.twimg.com/images/themes/theme1/bg.png",
    "profile_background_tile": false,
    "profile_banner_url": "https://pbs.twimg.com/profile_banners/967120627441291264/1519424807",
    "profile_image_url": "http://pbs.twimg.com/profile_images/967483039533191168/fixjgKYg_normal.jpg",
    "profile_image_url_https": "https://pbs.twimg.com/profile_images/967483039533191168/fixjgKYg_normal.jpg",
    "profile_link_color": "ABB8C2",
    "profile_sidebar_border_color": "000000",
    "profile_sidebar_fill_color": "000000",
    "profile_text_color": "000000",
    "profile_use_background_image": false,
    "protected": false,
    "screen_name": "lacuartaviaok",
    "statuses_count": 1355,
    "time_zone": null,
    "translator_type": "none",
    "url": "https://t.co/Dks9bYhS5c",
    "utc_offset": null,
    "verified": false
  }
}
============================================================
{
  "contributors": null,
  "coordinates": null,
  "created_at": "Sat Sep 22 14:27:46 +0000 2018",
  "entities": {
    "hashtags": [
      {
        "indices": [
          51,
          63
        ],
        "text": "Aftermarket"
      },
      {
        "indices": [
          78,
          84
        ],
        "text": "dolar"
      },
      {
        "indices": [
          100,
          107
        ],
        "text": "Merval"
      }
    ],
    "symbols": [],
    "urls": [],
    "user_mentions": [
      {
        "id": 400054955,
        "id_str": "400054955",
        "indices": [
          3,
          19
        ],
        "name": "Julian Yosovitch",
        "screen_name": "julianyosovitch"
      }
    ]
  },
  "favorite_count": 0,
  "favorited": false,
  "geo": null,
  "id": 1043507149337493504,
  "id_str": "1043507149337493504",
  "in_reply_to_screen_name": null,
  "in_reply_to_status_id": null,
  "in_reply_to_status_id_str": null,
  "in_reply_to_user_id": null,
  "in_reply_to_user_id_str": null,
  "is_quote_status": false,
  "lang": "es",
  "metadata": {
    "iso_language_code": "es",
    "result_type": "recent"
  },
  "place": null,
  "retweet_count": 3,
  "retweeted": false,
  "retweeted_status": {
    "contributors": null,
    "coordinates": null,
    "created_at": "Sat Sep 22 13:09:44 +0000 2018",
    "entities": {
      "hashtags": [
        {
          "indices": [
            30,
            42
          ],
          "text": "Aftermarket"
        },
        {
          "indices": [
            57,
            63
          ],
          "text": "dolar"
        },
        {
          "indices": [
            79,
            86
          ],
          "text": "Merval"
        }
      ],
      "symbols": [],
      "urls": [
        {
          "display_url": "twitter.com/i/web/status/1\u2026",
          "expanded_url": "https://twitter.com/i/web/status/1043487513288040449",
          "indices": [
            117,
            140
          ],
          "url": "https://t.co/rFnQiBOH3W"
        }
      ],
      "user_mentions": []
    },
    "favorite_count": 7,
    "favorited": false,
    "geo": null,
    "id": 1043487513288040449,
    "id_str": "1043487513288040449",
    "in_reply_to_screen_name": null,
    "in_reply_to_status_id": null,
    "in_reply_to_status_id_str": null,
    "in_reply_to_user_id": null,
    "in_reply_to_user_id_str": null,
    "is_quote_status": false,
    "lang": "es",
    "metadata": {
      "iso_language_code": "es",
      "result_type": "recent"
    },
    "place": null,
    "possibly_sensitive": false,
    "retweet_count": 3,
    "retweeted": false,
    "source": "<a href=\"http://twitter.com\" rel=\"nofollow\">Twitter Web Client</a>",
    "text": "Arranc\u00e1 este finde escuchando #Aftermarket:  Calma en el #dolar y rebote en el #Merval y bonos \u00bfYa pas\u00f3 lo peor? co\u2026 https://t.co/rFnQiBOH3W",
    "truncated": true,
    "user": {
      "contributors_enabled": false,
      "created_at": "Fri Oct 28 12:52:11 +0000 2011",
      "default_profile": false,
      "default_profile_image": false,
      "description": "Msc Finance @UTDiTella Analista Mercados Fin. @ullua Redactor Mercados @cronistacom Conductor #Aftermarket VIE19hs @cultura979 Profe MFIN @UdeSa y @UTDiTella",
      "entities": {
        "description": {
          "urls": []
        },
        "url": {
          "urls": [
            {
              "display_url": "cronista.com/tags/after%20m\u2026",
              "expanded_url": "http://www.cronista.com/tags/after%20market",
              "indices": [
                0,
                23
              ],
              "url": "https://t.co/zXwd9EQEd7"
            }
          ]
        }
      },
      "favourites_count": 19505,
      "follow_request_sent": false,
      "followers_count": 15405,
      "following": false,
      "friends_count": 1786,
      "geo_enabled": true,
      "has_extended_profile": true,
      "id": 400054955,
      "id_str": "400054955",
      "is_translation_enabled": false,
      "is_translator": false,
      "lang": "es",
      "listed_count": 361,
      "location": "BUENOS AIRES ",
      "name": "Julian Yosovitch",
      "notifications": false,
      "profile_background_color": "131516",
      "profile_background_image_url": "http://abs.twimg.com/images/themes/theme14/bg.gif",
      "profile_background_image_url_https": "https://abs.twimg.com/images/themes/theme14/bg.gif",
      "profile_background_tile": true,
      "profile_banner_url": "https://pbs.twimg.com/profile_banners/400054955/1401661251",
      "profile_image_url": "http://pbs.twimg.com/profile_images/1000518955654635520/lM-DWWw0_normal.jpg",
      "profile_image_url_https": "https://pbs.twimg.com/profile_images/1000518955654635520/lM-DWWw0_normal.jpg",
      "profile_link_color": "1B95E0",
      "profile_sidebar_border_color": "EEEEEE",
      "profile_sidebar_fill_color": "EFEFEF",
      "profile_text_color": "333333",
      "profile_use_background_image": true,
      "protected": false,
      "screen_name": "julianyosovitch",
      "statuses_count": 54367,
      "time_zone": null,
      "translator_type": "none",
      "url": "https://t.co/zXwd9EQEd7",
      "utc_offset": null,
      "verified": false
    }
  },
  "source": "<a href=\"http://twitter.com/download/android\" rel=\"nofollow\">Twitter for Android</a>",
  "text": "RT @julianyosovitch: Arranc\u00e1 este finde escuchando #Aftermarket:  Calma en el #dolar y rebote en el #Merval y bonos \u00bfYa pas\u00f3 lo peor? con @\u2026",
  "truncated": false,
  "user": {
    "contributors_enabled": false,
    "created_at": "Tue Nov 02 00:27:26 +0000 2010",
    "default_profile": true,
    "default_profile_image": false,
    "description": "MBA -UTDT-  Lic. en RRHH (UBA). Casado con Agustina, papa de Juani y fana de River \nNo importa que estes perdido, lo importante es que sepas hacia donde vas!",
    "entities": {
      "description": {
        "urls": []
      }
    },
    "favourites_count": 128,
    "follow_request_sent": false,
    "followers_count": 46,
    "following": false,
    "friends_count": 412,
    "geo_enabled": true,
    "has_extended_profile": false,
    "id": 210992720,
    "id_str": "210992720",
    "is_translation_enabled": false,
    "is_translator": false,
    "lang": "en",
    "listed_count": 0,
    "location": "Ciudad Aut\u00f3noma de Buenos Aire",
    "name": "Maximiliano Noguera",
    "notifications": false,
    "profile_background_color": "C0DEED",
    "profile_background_image_url": "http://abs.twimg.com/images/themes/theme1/bg.png",
    "profile_background_image_url_https": "https://abs.twimg.com/images/themes/theme1/bg.png",
    "profile_background_tile": false,
    "profile_banner_url": "https://pbs.twimg.com/profile_banners/210992720/1466514627",
    "profile_image_url": "http://pbs.twimg.com/profile_images/879885854147268609/F2hxApvj_normal.jpg",
    "profile_image_url_https": "https://pbs.twimg.com/profile_images/879885854147268609/F2hxApvj_normal.jpg",
    "profile_link_color": "1DA1F2",
    "profile_sidebar_border_color": "C0DEED",
    "profile_sidebar_fill_color": "DDEEF6",
    "profile_text_color": "333333",
    "profile_use_background_image": true,
    "protected": false,
    "screen_name": "mjnoguera",
    "statuses_count": 425,
    "time_zone": null,
    "translator_type": "none",
    "url": null,
    "utc_offset": null,
    "verified": false
  }
}
============================================================
{
  "contributors": null,
  "coordinates": null,
  "created_at": "Sat Sep 22 14:25:56 +0000 2018",
  "entities": {
    "hashtags": [
      {
        "indices": [
          65,
          71
        ],
        "text": "forex"
      },
      {
        "indices": [
          72,
          75
        ],
        "text": "fx"
      },
      {
        "indices": [
          76,
          83
        ],
        "text": "foreks"
      },
      {
        "indices": [
          84,
          89
        ],
        "text": "gold"
      },
      {
        "indices": [
          90,
          94
        ],
        "text": "ons"
      },
      {
        "indices": [
          95,
          102
        ],
        "text": "parite"
      },
      {
        "indices": [
          103,
          110
        ],
        "text": "eurusd"
      }
    ],
    "symbols": [],
    "urls": [
      {
        "display_url": "twitter.com/i/web/status/1\u2026",
        "expanded_url": "https://twitter.com/i/web/status/1043506688970625024",
        "indices": [
          112,
          135
        ],
        "url": "https://t.co/CCCWWqpyiT"
      }
    ],
    "user_mentions": []
  },
  "favorite_count": 1,
  "favorited": false,
  "geo": null,
  "id": 1043506688970625024,
  "id_str": "1043506688970625024",
  "in_reply_to_screen_name": null,
  "in_reply_to_status_id": null,
  "in_reply_to_status_id_str": null,
  "in_reply_to_user_id": null,
  "in_reply_to_user_id_str": null,
  "is_quote_status": false,
  "lang": "tr",
  "metadata": {
    "iso_language_code": "tr",
    "result_type": "recent"
  },
  "place": null,
  "retweet_count": 0,
  "retweeted": false,
  "source": "<a href=\"http://twitter.com\" rel=\"nofollow\">Twitter Web Client</a>",
  "text": "Merhabalar ben Forex Gurusu parite emtia analizlerimle buraday\u0131m #forex #fx #foreks #gold #ons #parite #eurusd\u2026 https://t.co/CCCWWqpyiT",
  "truncated": true,
  "user": {
    "contributors_enabled": false,
    "created_at": "Thu Sep 20 12:28:53 +0000 2018",
    "default_profile": true,
    "default_profile_image": false,
    "description": "",
    "entities": {
      "description": {
        "urls": []
      }
    },
    "favourites_count": 0,
    "follow_request_sent": false,
    "followers_count": 0,
    "following": false,
    "friends_count": 0,
    "geo_enabled": false,
    "has_extended_profile": false,
    "id": 1042752454738235392,
    "id_str": "1042752454738235392",
    "is_translation_enabled": false,
    "is_translator": false,
    "lang": "tr",
    "listed_count": 0,
    "location": "",
    "name": "Forex Gurusu",
    "notifications": false,
    "profile_background_color": "F5F8FA",
    "profile_background_image_url": null,
    "profile_background_image_url_https": null,
    "profile_background_tile": false,
    "profile_banner_url": "https://pbs.twimg.com/profile_banners/1042752454738235392/1537626279",
    "profile_image_url": "http://pbs.twimg.com/profile_images/1043506075348213762/dRLogToR_normal.jpg",
    "profile_image_url_https": "https://pbs.twimg.com/profile_images/1043506075348213762/dRLogToR_normal.jpg",
    "profile_link_color": "1DA1F2",
    "profile_sidebar_border_color": "C0DEED",
    "profile_sidebar_fill_color": "DDEEF6",
    "profile_text_color": "333333",
    "profile_use_background_image": true,
    "protected": false,
    "screen_name": "ForexGurusuL",
    "statuses_count": 1,
    "time_zone": null,
    "translator_type": "none",
    "url": null,
    "utc_offset": null,
    "verified": false
  }
}
============================================================
{
  "contributors": null,
  "coordinates": null,
  "created_at": "Sat Sep 22 14:25:25 +0000 2018",
  "entities": {
    "hashtags": [
      {
        "indices": [
          47,
          53
        ],
        "text": "D\u00f3lar"
      }
    ],
    "symbols": [],
    "urls": [],
    "user_mentions": [
      {
        "id": 154738110,
        "id_str": "154738110",
        "indices": [
          3,
          17
        ],
        "name": "Juan Carlos Arg\u00fcello",
        "screen_name": "JuanCArguello"
      }
    ]
  },
  "favorite_count": 0,
  "favorited": false,
  "geo": null,
  "id": 1043506556250337281,
  "id_str": "1043506556250337281",
  "in_reply_to_screen_name": null,
  "in_reply_to_status_id": null,
  "in_reply_to_status_id_str": null,
  "in_reply_to_user_id": null,
  "in_reply_to_user_id_str": null,
  "is_quote_status": false,
  "lang": "es",
  "metadata": {
    "iso_language_code": "es",
    "result_type": "recent"
  },
  "place": null,
  "retweet_count": 1,
  "retweeted": false,
  "retweeted_status": {
    "contributors": null,
    "coordinates": null,
    "created_at": "Fri Sep 21 21:52:53 +0000 2018",
    "entities": {
      "hashtags": [
        {
          "indices": [
            28,
            34
          ],
          "text": "D\u00f3lar"
        }
      ],
      "symbols": [],
      "urls": [
        {
          "display_url": "twitter.com/i/web/status/1\u2026",
          "expanded_url": "https://twitter.com/i/web/status/1043256780455862278",
          "indices": [
            117,
            140
          ],
          "url": "https://t.co/3EaBH5pNYk"
        }
      ],
      "user_mentions": []
    },
    "favorite_count": 2,
    "favorited": false,
    "geo": null,
    "id": 1043256780455862278,
    "id_str": "1043256780455862278",
    "in_reply_to_screen_name": null,
    "in_reply_to_status_id": null,
    "in_reply_to_status_id_str": null,
    "in_reply_to_user_id": null,
    "in_reply_to_user_id_str": null,
    "is_quote_status": false,
    "lang": "es",
    "metadata": {
      "iso_language_code": "es",
      "result_type": "recent"
    },
    "place": null,
    "possibly_sensitive": false,
    "retweet_count": 1,
    "retweeted": false,
    "source": "<a href=\"http://twitter.com/download/android\" rel=\"nofollow\">Twitter for Android</a>",
    "text": "Con una semana de alivio el #D\u00f3lar cierra en baja casi al mismo precio q a fin de agosto. La devaluaci\u00f3n del 2018 b\u2026 https://t.co/3EaBH5pNYk",
    "truncated": true,
    "user": {
      "contributors_enabled": false,
      "created_at": "Sat Jun 12 02:23:50 +0000 2010",
      "default_profile": true,
      "default_profile_image": false,
      "description": "Periodista.  Malcriado en Andresito. #Misiones. Padre, de River. #Pol\u00edtica y #econom\u00eda. Director de https://t.co/jrEeSeAGuF https://t.co/UjPChr7joe",
      "entities": {
        "description": {
          "urls": [
            {
              "display_url": "Economis.com.ar",
              "expanded_url": "http://www.Economis.com.ar",
              "indices": [
                100,
                123
              ],
              "url": "https://t.co/jrEeSeAGuF"
            },
            {
              "display_url": "instagram.com/jucarguello/",
              "expanded_url": "http://instagram.com/jucarguello/",
              "indices": [
                124,
                147
              ],
              "url": "https://t.co/UjPChr7joe"
            }
          ]
        },
        "url": {
          "urls": [
            {
              "display_url": "economis.com.ar",
              "expanded_url": "http://economis.com.ar",
              "indices": [
                0,
                23
              ],
              "url": "https://t.co/Jtyl6KhN3U"
            }
          ]
        }
      },
      "favourites_count": 5573,
      "follow_request_sent": false,
      "followers_count": 4653,
      "following": false,
      "friends_count": 941,
      "geo_enabled": true,
      "has_extended_profile": true,
      "id": 154738110,
      "id_str": "154738110",
      "is_translation_enabled": false,
      "is_translator": false,
      "lang": "es",
      "listed_count": 50,
      "location": "Posadas, Misiones, Argentina",
      "name": "Juan Carlos Arg\u00fcello",
      "notifications": false,
      "profile_background_color": "C0DEED",
      "profile_background_image_url": "http://abs.twimg.com/images/themes/theme1/bg.png",
      "profile_background_image_url_https": "https://abs.twimg.com/images/themes/theme1/bg.png",
      "profile_background_tile": false,
      "profile_banner_url": "https://pbs.twimg.com/profile_banners/154738110/1393853039",
      "profile_image_url": "http://pbs.twimg.com/profile_images/953035925243793409/IKRIpGaK_normal.jpg",
      "profile_image_url_https": "https://pbs.twimg.com/profile_images/953035925243793409/IKRIpGaK_normal.jpg",
      "profile_link_color": "1DA1F2",
      "profile_sidebar_border_color": "C0DEED",
      "profile_sidebar_fill_color": "DDEEF6",
      "profile_text_color": "333333",
      "profile_use_background_image": true,
      "protected": false,
      "screen_name": "JuanCArguello",
      "statuses_count": 27848,
      "time_zone": null,
      "translator_type": "none",
      "url": "https://t.co/Jtyl6KhN3U",
      "utc_offset": null,
      "verified": false
    }
  },
  "source": "<a href=\"http://twitter.com/download/android\" rel=\"nofollow\">Twitter for Android</a>",
  "text": "RT @JuanCArguello: Con una semana de alivio el #D\u00f3lar cierra en baja casi al mismo precio q a fin de agosto. La devaluaci\u00f3n del 2018 baja a\u2026",
  "truncated": false,
  "user": {
    "contributors_enabled": false,
    "created_at": "Thu Aug 06 19:32:58 +0000 2015",
    "default_profile": true,
    "default_profile_image": false,
    "description": "Abogado",
    "entities": {
      "description": {
        "urls": []
      }
    },
    "favourites_count": 7006,
    "follow_request_sent": false,
    "followers_count": 298,
    "following": false,
    "friends_count": 600,
    "geo_enabled": true,
    "has_extended_profile": false,
    "id": 3406148153,
    "id_str": "3406148153",
    "is_translation_enabled": false,
    "is_translator": false,
    "lang": "es",
    "listed_count": 0,
    "location": "",
    "name": "Javier Ozuna",
    "notifications": false,
    "profile_background_color": "C0DEED",
    "profile_background_image_url": "http://abs.twimg.com/images/themes/theme1/bg.png",
    "profile_background_image_url_https": "https://abs.twimg.com/images/themes/theme1/bg.png",
    "profile_background_tile": false,
    "profile_image_url": "http://pbs.twimg.com/profile_images/883838309197369345/kd4s6Mdy_normal.jpg",
    "profile_image_url_https": "https://pbs.twimg.com/profile_images/883838309197369345/kd4s6Mdy_normal.jpg",
    "profile_link_color": "1DA1F2",
    "profile_sidebar_border_color": "C0DEED",
    "profile_sidebar_fill_color": "DDEEF6",
    "profile_text_color": "333333",
    "profile_use_background_image": true,
    "protected": false,
    "screen_name": "JavierOzuna10",
    "statuses_count": 2936,
    "time_zone": null,
    "translator_type": "none",
    "url": null,
    "utc_offset": null,
    "verified": false
  }
}
============================================================
{
  "contributors": null,
  "coordinates": null,
  "created_at": "Sat Sep 22 14:19:21 +0000 2018",
  "entities": {
    "hashtags": [
      {
        "indices": [
          63,
          71
        ],
        "text": "Ekonomi"
      },
      {
        "indices": [
          72,
          80
        ],
        "text": "Economy"
      },
      {
        "indices": [
          81,
          86
        ],
        "text": "Para"
      },
      {
        "indices": [
          87,
          93
        ],
        "text": "Dolar"
      },
      {
        "indices": [
          94,
          99
        ],
        "text": "Euro"
      },
      {
        "indices": [
          100,
          108
        ],
        "text": "Bitcoin"
      }
    ],
    "symbols": [],
    "urls": [
      {
        "display_url": "serinletici.com/2018/09/22/eds\u2026",
        "expanded_url": "https://serinletici.com/2018/09/22/eds-cezalarinin-kapsami-genisletilecek/",
        "indices": [
          39,
          62
        ],
        "url": "https://t.co/S2MvxizF5M"
      },
      {
        "display_url": "twitter.com/i/web/status/1\u2026",
        "expanded_url": "https://twitter.com/i/web/status/1043505031826341890",
        "indices": [
          110,
          133
        ],
        "url": "https://t.co/609rUmtP1Q"
      }
    ],
    "user_mentions": []
  },
  "favorite_count": 0,
  "favorited": false,
  "geo": null,
  "id": 1043505031826341890,
  "id_str": "1043505031826341890",
  "in_reply_to_screen_name": null,
  "in_reply_to_status_id": null,
  "in_reply_to_status_id_str": null,
  "in_reply_to_user_id": null,
  "in_reply_to_user_id_str": null,
  "is_quote_status": false,
  "lang": "tr",
  "metadata": {
    "iso_language_code": "tr",
    "result_type": "recent"
  },
  "place": null,
  "possibly_sensitive": false,
  "retweet_count": 0,
  "retweeted": false,
  "source": "<a href=\"https://ifttt.com\" rel=\"nofollow\">IFTTT</a>",
  "text": "EDS cezalar\u0131n\u0131n kapsam\u0131 geni\u015fletilecek https://t.co/S2MvxizF5M #Ekonomi #Economy #Para #Dolar #Euro #Bitcoin\u2026 https://t.co/609rUmtP1Q",
  "truncated": true,
  "user": {
    "contributors_enabled": false,
    "created_at": "Tue Mar 25 10:01:59 +0000 2014",
    "default_profile": false,
    "default_profile_image": false,
    "description": "@serinletici #ekomomi servisi.",
    "entities": {
      "description": {
        "urls": []
      },
      "url": {
        "urls": [
          {
            "display_url": "serinletici.com/category/ekono\u2026",
            "expanded_url": "http://serinletici.com/category/ekonomi/",
            "indices": [
              0,
              23
            ],
            "url": "https://t.co/oiZHUbL1dK"
          }
        ]
      }
    },
    "favourites_count": 16,
    "follow_request_sent": false,
    "followers_count": 294,
    "following": false,
    "friends_count": 340,
    "geo_enabled": false,
    "has_extended_profile": false,
    "id": 2410765387,
    "id_str": "2410765387",
    "is_translation_enabled": false,
    "is_translator": false,
    "lang": "tr",
    "listed_count": 2,
    "location": "",
    "name": "Ekonomi",
    "notifications": false,
    "profile_background_color": "000000",
    "profile_background_image_url": "http://abs.twimg.com/images/themes/theme9/bg.gif",
    "profile_background_image_url_https": "https://abs.twimg.com/images/themes/theme9/bg.gif",
    "profile_background_tile": false,
    "profile_banner_url": "https://pbs.twimg.com/profile_banners/2410765387/1525946901",
    "profile_image_url": "http://pbs.twimg.com/profile_images/1001376460421193729/-xraYo_D_normal.jpg",
    "profile_image_url_https": "https://pbs.twimg.com/profile_images/1001376460421193729/-xraYo_D_normal.jpg",
    "profile_link_color": "7FDBB6",
    "profile_sidebar_border_color": "000000",
    "profile_sidebar_fill_color": "000000",
    "profile_text_color": "000000",
    "profile_use_background_image": false,
    "protected": false,
    "screen_name": "ekonomi_ser",
    "statuses_count": 2730,
    "time_zone": null,
    "translator_type": "none",
    "url": "https://t.co/oiZHUbL1dK",
    "utc_offset": null,
    "verified": false
  }
}
============================================================
{
  "contributors": null,
  "coordinates": null,
  "created_at": "Sat Sep 22 14:17:25 +0000 2018",
  "entities": {
    "hashtags": [
      {
        "indices": [
          16,
          22
        ],
        "text": "Ahora"
      },
      {
        "indices": [
          26,
          36
        ],
        "text": "LaM\u00e1quina"
      },
      {
        "indices": [
          62,
          68
        ],
        "text": "D\u00f3lar"
      },
      {
        "indices": [
          69,
          79
        ],
        "text": "Inflaci\u00f3n"
      },
      {
        "indices": [
          80,
          96
        ],
        "text": "Presupuesto2019"
      }
    ],
    "symbols": [],
    "urls": [],
    "user_mentions": [
      {
        "id": 285258447,
        "id_str": "285258447",
        "indices": [
          3,
          14
        ],
        "name": "DELTA 90.3",
        "screen_name": "delta903fm"
      },
      {
        "id": 145677457,
        "id_str": "145677457",
        "indices": [
          99,
          111
        ],
        "name": "Pablo Duggan",
        "screen_name": "pabloduggan"
      },
      {
        "id": 133961121,
        "id_str": "133961121",
        "indices": [
          112,
          121
        ],
        "name": "Diego Kolankowsky",
        "screen_name": "Diegokol"
      },
      {
        "id": 436402960,
        "id_str": "436402960",
        "indices": [
          122,
          134
        ],
        "name": "Mar\u00eda Stambuk",
        "screen_name": "MaryStambuk"
      }
    ]
  },
  "favorite_count": 0,
  "favorited": false,
  "geo": null,
  "id": 1043504545215795200,
  "id_str": "1043504545215795200",
  "in_reply_to_screen_name": null,
  "in_reply_to_status_id": null,
  "in_reply_to_status_id_str": null,
  "in_reply_to_user_id": null,
  "in_reply_to_user_id_str": null,
  "is_quote_status": false,
  "lang": "es",
  "metadata": {
    "iso_language_code": "es",
    "result_type": "recent"
  },
  "place": null,
  "retweet_count": 1,
  "retweeted": false,
  "retweeted_status": {
    "contributors": null,
    "coordinates": null,
    "created_at": "Sat Sep 22 13:57:34 +0000 2018",
    "entities": {
      "hashtags": [
        {
          "indices": [
            0,
            6
          ],
          "text": "Ahora"
        },
        {
          "indices": [
            10,
            20
          ],
          "text": "LaM\u00e1quina"
        },
        {
          "indices": [
            46,
            52
          ],
          "text": "D\u00f3lar"
        },
        {
          "indices": [
            53,
            63
          ],
          "text": "Inflaci\u00f3n"
        },
        {
          "indices": [
            64,
            80
          ],
          "text": "Presupuesto2019"
        }
      ],
      "symbols": [],
      "urls": [
        {
          "display_url": "twitter.com/i/web/status/1\u2026",
          "expanded_url": "https://twitter.com/i/web/status/1043499550198194178",
          "indices": [
            107,
            130
          ],
          "url": "https://t.co/ypxbj1JxuR"
        }
      ],
      "user_mentions": [
        {
          "id": 145677457,
          "id_str": "145677457",
          "indices": [
            83,
            95
          ],
          "name": "Pablo Duggan",
          "screen_name": "pabloduggan"
        },
        {
          "id": 133961121,
          "id_str": "133961121",
          "indices": [
            96,
            105
          ],
          "name": "Diego Kolankowsky",
          "screen_name": "Diegokol"
        }
      ]
    },
    "favorite_count": 0,
    "favorited": false,
    "geo": null,
    "id": 1043499550198194178,
    "id_str": "1043499550198194178",
    "in_reply_to_screen_name": null,
    "in_reply_to_status_id": null,
    "in_reply_to_status_id_str": null,
    "in_reply_to_user_id": null,
    "in_reply_to_user_id_str": null,
    "is_quote_status": false,
    "lang": "es",
    "metadata": {
      "iso_language_code": "es",
      "result_type": "recent"
    },
    "place": null,
    "possibly_sensitive": false,
    "retweet_count": 1,
    "retweeted": false,
    "source": "<a href=\"http://twitter.com\" rel=\"nofollow\">Twitter Web Client</a>",
    "text": "#Ahora en #LaM\u00e1quina Pablo Goldin, economista #D\u00f3lar #Inflaci\u00f3n #Presupuesto2019 - @PabloDuggan @Diegokol\u2026 https://t.co/ypxbj1JxuR",
    "truncated": true,
    "user": {
      "contributors_enabled": false,
      "created_at": "Wed Apr 20 20:39:26 +0000 2011",
      "default_profile": false,
      "default_profile_image": false,
      "description": "Radio de m\u00fasica electr\u00f3nica, cultura joven y actualidad referente en Latinoam\u00e9rica. Transmitiendo desde 90.3, Web y Apps mobile. https://t.co/WxdUjnbCGe.",
      "entities": {
        "description": {
          "urls": [
            {
              "display_url": "fmdelta903.com",
              "expanded_url": "http://www.fmdelta903.com",
              "indices": [
                129,
                152
              ],
              "url": "https://t.co/WxdUjnbCGe"
            }
          ]
        },
        "url": {
          "urls": [
            {
              "display_url": "fmdelta903.com",
              "expanded_url": "http://www.fmdelta903.com",
              "indices": [
                0,
                23
              ],
              "url": "https://t.co/WxdUjnbCGe"
            }
          ]
        }
      },
      "favourites_count": 2783,
      "follow_request_sent": false,
      "followers_count": 61195,
      "following": false,
      "friends_count": 36345,
      "geo_enabled": true,
      "has_extended_profile": false,
      "id": 285258447,
      "id_str": "285258447",
      "is_translation_enabled": false,
      "is_translator": false,
      "lang": "es",
      "listed_count": 252,
      "location": "Buenos Aires",
      "name": "DELTA 90.3",
      "notifications": false,
      "profile_background_color": "131516",
      "profile_background_image_url": "http://abs.twimg.com/images/themes/theme14/bg.gif",
      "profile_background_image_url_https": "https://abs.twimg.com/images/themes/theme14/bg.gif",
      "profile_background_tile": true,
      "profile_banner_url": "https://pbs.twimg.com/profile_banners/285258447/1522773396",
      "profile_image_url": "http://pbs.twimg.com/profile_images/967194399728861184/xbQcg2IJ_normal.jpg",
      "profile_image_url_https": "https://pbs.twimg.com/profile_images/967194399728861184/xbQcg2IJ_normal.jpg",
      "profile_link_color": "009999",
      "profile_sidebar_border_color": "EEEEEE",
      "profile_sidebar_fill_color": "EFEFEF",
      "profile_text_color": "333333",
      "profile_use_background_image": true,
      "protected": false,
      "screen_name": "delta903fm",
      "statuses_count": 110205,
      "time_zone": null,
      "translator_type": "regular",
      "url": "https://t.co/WxdUjnbCGe",
      "utc_offset": null,
      "verified": false
    }
  },
  "source": "<a href=\"http://twitter.com/download/android\" rel=\"nofollow\">Twitter for Android</a>",
  "text": "RT @delta903fm: #Ahora en #LaM\u00e1quina Pablo Goldin, economista #D\u00f3lar #Inflaci\u00f3n #Presupuesto2019 - @PabloDuggan @Diegokol @MaryStambuk http\u2026",
  "truncated": false,
  "user": {
    "contributors_enabled": false,
    "created_at": "Wed May 19 15:54:10 +0000 2010",
    "default_profile": false,
    "default_profile_image": false,
    "description": "Periodista, Abogado.\rInvolucrados por Am\u00e9rica TV. S\u00e1bados de 10 a 13hs en Delta 90.3. Pol\u00e9mica en el Bar por Am\u00e9rica TV",
    "entities": {
      "description": {
        "urls": []
      }
    },
    "favourites_count": 1332,
    "follow_request_sent": false,
    "followers_count": 73515,
    "following": false,
    "friends_count": 2226,
    "geo_enabled": true,
    "has_extended_profile": false,
    "id": 145677457,
    "id_str": "145677457",
    "is_translation_enabled": false,
    "is_translator": false,
    "lang": "es",
    "listed_count": 411,
    "location": "Buenos Aires",
    "name": "Pablo Duggan",
    "notifications": false,
    "profile_background_color": "C0DEED",
    "profile_background_image_url": "http://abs.twimg.com/images/themes/theme1/bg.png",
    "profile_background_image_url_https": "https://abs.twimg.com/images/themes/theme1/bg.png",
    "profile_background_tile": true,
    "profile_banner_url": "https://pbs.twimg.com/profile_banners/145677457/1440001230",
    "profile_image_url": "http://pbs.twimg.com/profile_images/1036938986915287040/H_y2SUP__normal.jpg",
    "profile_image_url_https": "https://pbs.twimg.com/profile_images/1036938986915287040/H_y2SUP__normal.jpg",
    "profile_link_color": "0084B4",
    "profile_sidebar_border_color": "C0DEED",
    "profile_sidebar_fill_color": "DDEEF6",
    "profile_text_color": "333333",
    "profile_use_background_image": true,
    "protected": false,
    "screen_name": "pabloduggan",
    "statuses_count": 27398,
    "time_zone": null,
    "translator_type": "none",
    "url": null,
    "utc_offset": null,
    "verified": false
  }
}
============================================================
{
  "contributors": null,
  "coordinates": null,
  "created_at": "Sat Sep 22 14:17:18 +0000 2018",
  "entities": {
    "hashtags": [],
    "symbols": [],
    "urls": [],
    "user_mentions": [
      {
        "id": 164559805,
        "id_str": "164559805",
        "indices": [
          3,
          17
        ],
        "name": "Edgardo Rovira",
        "screen_name": "EdgardoRovira"
      }
    ]
  },
  "favorite_count": 0,
  "favorited": false,
  "geo": null,
  "id": 1043504517365620737,
  "id_str": "1043504517365620737",
  "in_reply_to_screen_name": null,
  "in_reply_to_status_id": null,
  "in_reply_to_status_id_str": null,
  "in_reply_to_user_id": null,
  "in_reply_to_user_id_str": null,
  "is_quote_status": false,
  "lang": "es",
  "metadata": {
    "iso_language_code": "es",
    "result_type": "recent"
  },
  "place": null,
  "retweet_count": 14,
  "retweeted": false,
  "retweeted_status": {
    "contributors": null,
    "coordinates": null,
    "created_at": "Sat Sep 22 11:07:08 +0000 2018",
    "entities": {
      "hashtags": [],
      "symbols": [],
      "urls": [
        {
          "display_url": "twitter.com/i/web/status/1\u2026",
          "expanded_url": "https://twitter.com/i/web/status/1043456660247859200",
          "indices": [
            116,
            139
          ],
          "url": "https://t.co/MfGM48oO1e"
        }
      ],
      "user_mentions": []
    },
    "favorite_count": 10,
    "favorited": false,
    "geo": null,
    "id": 1043456660247859200,
    "id_str": "1043456660247859200",
    "in_reply_to_screen_name": null,
    "in_reply_to_status_id": null,
    "in_reply_to_status_id_str": null,
    "in_reply_to_user_id": null,
    "in_reply_to_user_id_str": null,
    "is_quote_status": false,
    "lang": "es",
    "metadata": {
      "iso_language_code": "es",
      "result_type": "recent"
    },
    "place": null,
    "possibly_sensitive": false,
    "retweet_count": 14,
    "retweeted": false,
    "source": "<a href=\"http://twitter.com/download/android\" rel=\"nofollow\">Twitter for Android</a>",
    "text": "Sturzenegger ten\u00eda una estrategia de flotaci\u00f3n sucia o \"banda de flotaci\u00f3n\" y Caputo igual. Se \"liber\u00f3\" un poco en\u2026 https://t.co/MfGM48oO1e",
    "truncated": true,
    "user": {
      "contributors_enabled": false,
      "created_at": "Fri Jul 09 04:47:06 +0000 2010",
      "default_profile": false,
      "default_profile_image": false,
      "description": "Nuevas gestas en viejas luchas por justicia y dignidad. 41 eneros, un amor y un bebe",
      "entities": {
        "description": {
          "urls": []
        },
        "url": {
          "urls": [
            {
              "display_url": "facebook.com/EGRovira",
              "expanded_url": "https://www.facebook.com/EGRovira",
              "indices": [
                0,
                23
              ],
              "url": "https://t.co/9PzuG9JPYi"
            }
          ]
        }
      },
      "favourites_count": 76665,
      "follow_request_sent": false,
      "followers_count": 135573,
      "following": false,
      "friends_count": 104483,
      "geo_enabled": true,
      "has_extended_profile": true,
      "id": 164559805,
      "id_str": "164559805",
      "is_translation_enabled": false,
      "is_translator": false,
      "lang": "es",
      "listed_count": 324,
      "location": "Buenos Aires",
      "name": "Edgardo Rovira",
      "notifications": false,
      "profile_background_color": "1A1B1F",
      "profile_background_image_url": "http://abs.twimg.com/images/themes/theme9/bg.gif",
      "profile_background_image_url_https": "https://abs.twimg.com/images/themes/theme9/bg.gif",
      "profile_background_tile": true,
      "profile_banner_url": "https://pbs.twimg.com/profile_banners/164559805/1534200861",
      "profile_image_url": "http://pbs.twimg.com/profile_images/1003110106320588806/HhAkANYW_normal.jpg",
      "profile_image_url_https": "https://pbs.twimg.com/profile_images/1003110106320588806/HhAkANYW_normal.jpg",
      "profile_link_color": "052833",
      "profile_sidebar_border_color": "000000",
      "profile_sidebar_fill_color": "252429",
      "profile_text_color": "666666",
      "profile_use_background_image": true,
      "protected": false,
      "screen_name": "EdgardoRovira",
      "statuses_count": 53250,
      "time_zone": null,
      "translator_type": "none",
      "url": "https://t.co/9PzuG9JPYi",
      "utc_offset": null,
      "verified": false
    }
  },
  "source": "<a href=\"http://twitter.com/download/android\" rel=\"nofollow\">Twitter for Android</a>",
  "text": "RT @EdgardoRovira: Sturzenegger ten\u00eda una estrategia de flotaci\u00f3n sucia o \"banda de flotaci\u00f3n\" y Caputo igual. Se \"liber\u00f3\" un poco en julio\u2026",
  "truncated": false,
  "user": {
    "contributors_enabled": false,
    "created_at": "Fri May 18 18:10:18 +0000 2018",
    "default_profile": true,
    "default_profile_image": false,
    "description": "El Estado debe generar y comercializar a la comunidad electricidad, gas, petroleo, agua, s\u00f3lo asi se podr\u00e1 tener desarrollo y autonom\u00eda",
    "entities": {
      "description": {
        "urls": []
      }
    },
    "favourites_count": 703,
    "follow_request_sent": false,
    "followers_count": 38,
    "following": false,
    "friends_count": 8,
    "geo_enabled": false,
    "has_extended_profile": true,
    "id": 997539893353046017,
    "id_str": "997539893353046017",
    "is_translation_enabled": false,
    "is_translator": false,
    "lang": "es",
    "listed_count": 0,
    "location": "Ciudad Aut\u00f3noma de Buenos Aire",
    "name": "mejorayer",
    "notifications": false,
    "profile_background_color": "F5F8FA",
    "profile_background_image_url": null,
    "profile_background_image_url_https": null,
    "profile_background_tile": false,
    "profile_banner_url": "https://pbs.twimg.com/profile_banners/997539893353046017/1526733990",
    "profile_image_url": "http://pbs.twimg.com/profile_images/997574644122161157/jIzV7RJ1_normal.jpg",
    "profile_image_url_https": "https://pbs.twimg.com/profile_images/997574644122161157/jIzV7RJ1_normal.jpg",
    "profile_link_color": "1DA1F2",
    "profile_sidebar_border_color": "C0DEED",
    "profile_sidebar_fill_color": "DDEEF6",
    "profile_text_color": "333333",
    "profile_use_background_image": true,
    "protected": false,
    "screen_name": "mejorayer",
    "statuses_count": 2734,
    "time_zone": null,
    "translator_type": "none",
    "url": null,
    "utc_offset": null,
    "verified": false
  }
}
============================================================
{
  "contributors": null,
  "coordinates": null,
  "created_at": "Sat Sep 22 14:15:19 +0000 2018",
  "entities": {
    "hashtags": [
      {
        "indices": [
          97,
          101
        ],
        "text": "G20"
      },
      {
        "indices": [
          102,
          106
        ],
        "text": "FMI"
      },
      {
        "indices": [
          107,
          113
        ],
        "text": "Macri"
      },
      {
        "indices": [
          114,
          131
        ],
        "text": "MiFotoDeMauricio"
      }
    ],
    "symbols": [],
    "urls": [
      {
        "display_url": "pronosticobursatil.com/#!/-editorial-\u2026",
        "expanded_url": "http://www.pronosticobursatil.com/#!/-editorial-semanal/",
        "indices": [
          72,
          95
        ],
        "url": "https://t.co/tzIQbA1KF3"
      }
    ],
    "user_mentions": [
      {
        "id": 167950310,
        "id_str": "167950310",
        "indices": [
          3,
          13
        ],
        "name": "Marcelo Trovato  \ud83d\udd34",
        "screen_name": "ProBu2010"
      }
    ]
  },
  "favorite_count": 0,
  "favorited": false,
  "geo": null,
  "id": 1043504016314040320,
  "id_str": "1043504016314040320",
  "in_reply_to_screen_name": null,
  "in_reply_to_status_id": null,
  "in_reply_to_status_id_str": null,
  "in_reply_to_user_id": null,
  "in_reply_to_user_id_str": null,
  "is_quote_status": false,
  "lang": "es",
  "metadata": {
    "iso_language_code": "es",
    "result_type": "recent"
  },
  "place": null,
  "possibly_sensitive": false,
  "retweet_count": 16,
  "retweeted": false,
  "retweeted_status": {
    "contributors": null,
    "coordinates": null,
    "created_at": "Fri Sep 21 22:00:01 +0000 2018",
    "entities": {
      "hashtags": [
        {
          "indices": [
            82,
            86
          ],
          "text": "G20"
        },
        {
          "indices": [
            87,
            91
          ],
          "text": "FMI"
        },
        {
          "indices": [
            92,
            98
          ],
          "text": "Macri"
        }
      ],
      "symbols": [],
      "urls": [
        {
          "display_url": "pronosticobursatil.com/#!/-editorial-\u2026",
          "expanded_url": "http://www.pronosticobursatil.com/#!/-editorial-semanal/",
          "indices": [
            57,
            80
          ],
          "url": "https://t.co/tzIQbA1KF3"
        },
        {
          "display_url": "twitter.com/i/web/status/1\u2026",
          "expanded_url": "https://twitter.com/i/web/status/1043258574984671232",
          "indices": [
            100,
            123
          ],
          "url": "https://t.co/A9NtNTAgAI"
        }
      ],
      "user_mentions": []
    },
    "favorite_count": 37,
    "favorited": false,
    "geo": null,
    "id": 1043258574984671232,
    "id_str": "1043258574984671232",
    "in_reply_to_screen_name": null,
    "in_reply_to_status_id": null,
    "in_reply_to_status_id_str": null,
    "in_reply_to_user_id": null,
    "in_reply_to_user_id_str": null,
    "is_quote_status": false,
    "lang": "es",
    "metadata": {
      "iso_language_code": "es",
      "result_type": "recent"
    },
    "place": null,
    "possibly_sensitive": false,
    "retweet_count": 16,
    "retweeted": false,
    "source": "<a href=\"http://twitter.com\" rel=\"nofollow\">Twitter Web Client</a>",
    "text": "NUESTRO NUEVO EDITORIAL\n\n\"NO ES PLATA, ES POR POL\u00cdTICA\"\n\nhttps://t.co/tzIQbA1KF3\n\n#G20 #FMI #Macri\u2026 https://t.co/A9NtNTAgAI",
    "truncated": true,
    "user": {
      "contributors_enabled": false,
      "created_at": "Sun Jul 18 00:10:16 +0000 2010",
      "default_profile": false,
      "default_profile_image": false,
      "description": "Creador de Pron\u00f3stico Burs\u00e1til\nAn\u00e1lisis de mercados con fines recreativos. Id\u00f3neo de los de antes. Editorialista.\nhttps://t.co/B78u4mx3Xe\u2026",
      "entities": {
        "description": {
          "urls": [
            {
              "display_url": "linkedin.com/in/marcelo-tro",
              "expanded_url": "http://linkedin.com/in/marcelo-tro",
              "indices": [
                114,
                137
              ],
              "url": "https://t.co/B78u4mx3Xe"
            }
          ]
        },
        "url": {
          "urls": [
            {
              "display_url": "pronosticobursatil.com",
              "expanded_url": "http://www.pronosticobursatil.com",
              "indices": [
                0,
                23
              ],
              "url": "https://t.co/IMU4vA86ew"
            }
          ]
        }
      },
      "favourites_count": 7716,
      "follow_request_sent": false,
      "followers_count": 12029,
      "following": false,
      "friends_count": 54,
      "geo_enabled": true,
      "has_extended_profile": true,
      "id": 167950310,
      "id_str": "167950310",
      "is_translation_enabled": false,
      "is_translator": false,
      "lang": "es",
      "listed_count": 218,
      "location": "C.A.B.A.  Argentina",
      "name": "Marcelo Trovato  \ud83d\udd34",
      "notifications": false,
      "profile_background_color": "022330",
      "profile_background_image_url": "http://abs.twimg.com/images/themes/theme16/bg.gif",
      "profile_background_image_url_https": "https://abs.twimg.com/images/themes/theme16/bg.gif",
      "profile_background_tile": false,
      "profile_banner_url": "https://pbs.twimg.com/profile_banners/167950310/1528460207",
      "profile_image_url": "http://pbs.twimg.com/profile_images/1029461063912366080/bZyK8Eyg_normal.jpg",
      "profile_image_url_https": "https://pbs.twimg.com/profile_images/1029461063912366080/bZyK8Eyg_normal.jpg",
      "profile_link_color": "0084B4",
      "profile_sidebar_border_color": "A8C7F7",
      "profile_sidebar_fill_color": "9CD6ED",
      "profile_text_color": "333333",
      "profile_use_background_image": true,
      "protected": false,
      "screen_name": "ProBu2010",
      "statuses_count": 32201,
      "time_zone": null,
      "translator_type": "none",
      "url": "https://t.co/IMU4vA86ew",
      "utc_offset": null,
      "verified": false
    }
  },
  "source": "<a href=\"http://twitter.com\" rel=\"nofollow\">Twitter Web Client</a>",
  "text": "RT @ProBu2010: NUESTRO NUEVO EDITORIAL\n\n\"NO ES PLATA, ES POR POL\u00cdTICA\"\n\nhttps://t.co/tzIQbA1KF3\n\n#G20 #FMI #Macri #MiFotoDeMauricio #SomosA\u2026",
  "truncated": false,
  "user": {
    "contributors_enabled": false,
    "created_at": "Thu Jun 25 18:00:53 +0000 2009",
    "default_profile": false,
    "default_profile_image": false,
    "description": "Consultor #SAPFI Jr Certificado y Analista Programador #Cobol Sr | Amante de la #tecnolog\u00eda, el deporte aventura y la #Patagonia | #Monta\u00f1ero y #viajero de alma",
    "entities": {
      "description": {
        "urls": []
      },
      "url": {
        "urls": [
          {
            "display_url": "linkedin.com/in/leandroglop\u2026",
            "expanded_url": "https://www.linkedin.com/in/leandroglopez",
            "indices": [
              0,
              23
            ],
            "url": "https://t.co/DTMycebnb5"
          }
        ]
      }
    },
    "favourites_count": 6113,
    "follow_request_sent": false,
    "followers_count": 1409,
    "following": false,
    "friends_count": 4998,
    "geo_enabled": false,
    "has_extended_profile": true,
    "id": 50717240,
    "id_str": "50717240",
    "is_translation_enabled": false,
    "is_translator": false,
    "lang": "es",
    "listed_count": 28,
    "location": "Buenos Aires, Argentina",
    "name": "Leandro G. L\u00f3pez",
    "notifications": false,
    "profile_background_color": "0099B9",
    "profile_background_image_url": "http://abs.twimg.com/images/themes/theme4/bg.gif",
    "profile_background_image_url_https": "https://abs.twimg.com/images/themes/theme4/bg.gif",
    "profile_background_tile": false,
    "profile_banner_url": "https://pbs.twimg.com/profile_banners/50717240/1430871908",
    "profile_image_url": "http://pbs.twimg.com/profile_images/2876456180/7b67161f30af633fab4d70813f2ff9aa_normal.png",
    "profile_image_url_https": "https://pbs.twimg.com/profile_images/2876456180/7b67161f30af633fab4d70813f2ff9aa_normal.png",
    "profile_link_color": "0099B9",
    "profile_sidebar_border_color": "5ED4DC",
    "profile_sidebar_fill_color": "95E8EC",
    "profile_text_color": "3C3940",
    "profile_use_background_image": true,
    "protected": false,
    "screen_name": "leandroglopez",
    "statuses_count": 26149,
    "time_zone": null,
    "translator_type": "none",
    "url": "https://t.co/DTMycebnb5",
    "utc_offset": null,
    "verified": false
  }
}
============================================================
{
  "contributors": null,
  "coordinates": null,
  "created_at": "Sat Sep 22 14:15:14 +0000 2018",
  "entities": {
    "hashtags": [
      {
        "indices": [
          0,
          14
        ],
        "text": "DolarParalelo"
      },
      {
        "indices": [
          15,
          25
        ],
        "text": "Venezuela"
      },
      {
        "indices": [
          27,
          38
        ],
        "text": "DolarCalle"
      },
      {
        "indices": [
          46,
          52
        ],
        "text": "Dolar"
      },
      {
        "indices": [
          60,
          70
        ],
        "text": "EuroCalle"
      },
      {
        "indices": [
          79,
          84
        ],
        "text": "Euro"
      },
      {
        "indices": [
          93,
          99
        ],
        "text": "Dicom"
      }
    ],
    "symbols": [],
    "urls": [
      {
        "display_url": "twitter.com/i/web/status/1\u2026",
        "expanded_url": "https://twitter.com/i/web/status/1043503993941630977",
        "indices": [
          117,
          140
        ],
        "url": "https://t.co/CPzJh0s8sm"
      }
    ],
    "user_mentions": []
  },
  "favorite_count": 0,
  "favorited": false,
  "geo": null,
  "id": 1043503993941630977,
  "id_str": "1043503993941630977",
  "in_reply_to_screen_name": null,
  "in_reply_to_status_id": null,
  "in_reply_to_status_id_str": null,
  "in_reply_to_user_id": null,
  "in_reply_to_user_id_str": null,
  "is_quote_status": false,
  "lang": "es",
  "metadata": {
    "iso_language_code": "es",
    "result_type": "recent"
  },
  "place": null,
  "possibly_sensitive": false,
  "retweet_count": 0,
  "retweeted": false,
  "source": "<a href=\"http://mercadodelechugas.mihenu.com\" rel=\"nofollow\">mercadolechugas</a>",
  "text": "#DolarParalelo #Venezuela \n#DolarCalle: 96,71 #Dolar: 93,08 #EuroCalle: 113,82 #Euro: 109,55 #Dicom (Naturales): 1,\u2026 https://t.co/CPzJh0s8sm",
  "truncated": true,
  "user": {
    "contributors_enabled": false,
    "created_at": "Thu Sep 05 17:57:21 +0000 2013",
    "default_profile": true,
    "default_profile_image": false,
    "description": "App Android para consultar el precio actualizado del d\u00f3lar paralelo y otras divisas, publicando anuncios de oferta y demanda. NO ES una tienda.",
    "entities": {
      "description": {
        "urls": []
      },
      "url": {
        "urls": [
          {
            "display_url": "mercadodelechugas.info/?utm_source=En\u2026",
            "expanded_url": "http://www.mercadodelechugas.info/?utm_source=EncabezadoTwitter&utm_medium=LinkHeader&utm_campaign=EnlaceEncabezadoTwitter",
            "indices": [
              0,
              22
            ],
            "url": "http://t.co/KmUt3kxLhR"
          }
        ]
      }
    },
    "favourites_count": 0,
    "follow_request_sent": false,
    "followers_count": 5664,
    "following": false,
    "friends_count": 10,
    "geo_enabled": false,
    "has_extended_profile": false,
    "id": 1732663279,
    "id_str": "1732663279",
    "is_translation_enabled": false,
    "is_translator": false,
    "lang": "es",
    "listed_count": 61,
    "location": "",
    "name": "Mercado Lechugas",
    "notifications": false,
    "profile_background_color": "C0DEED",
    "profile_background_image_url": "http://abs.twimg.com/images/themes/theme1/bg.png",
    "profile_background_image_url_https": "https://abs.twimg.com/images/themes/theme1/bg.png",
    "profile_background_tile": false,
    "profile_banner_url": "https://pbs.twimg.com/profile_banners/1732663279/1393488126",
    "profile_image_url": "http://pbs.twimg.com/profile_images/378800000415871587/ef2a34a3b54b5ecac03ebc2c7b8d6dcd_normal.png",
    "profile_image_url_https": "https://pbs.twimg.com/profile_images/378800000415871587/ef2a34a3b54b5ecac03ebc2c7b8d6dcd_normal.png",
    "profile_link_color": "1DA1F2",
    "profile_sidebar_border_color": "C0DEED",
    "profile_sidebar_fill_color": "DDEEF6",
    "profile_text_color": "333333",
    "profile_use_background_image": true,
    "protected": false,
    "screen_name": "MercadoLechugas",
    "statuses_count": 57664,
    "time_zone": null,
    "translator_type": "none",
    "url": "http://t.co/KmUt3kxLhR",
    "utc_offset": null,
    "verified": false
  }
}
============================================================
{
  "contributors": null,
  "coordinates": null,
  "created_at": "Sat Sep 22 14:11:33 +0000 2018",
  "entities": {
    "hashtags": [
      {
        "indices": [
          97,
          101
        ],
        "text": "G20"
      },
      {
        "indices": [
          102,
          106
        ],
        "text": "FMI"
      },
      {
        "indices": [
          107,
          113
        ],
        "text": "Macri"
      },
      {
        "indices": [
          114,
          131
        ],
        "text": "MiFotoDeMauricio"
      }
    ],
    "symbols": [],
    "urls": [
      {
        "display_url": "pronosticobursatil.com/#!/-editorial-\u2026",
        "expanded_url": "http://www.pronosticobursatil.com/#!/-editorial-semanal/",
        "indices": [
          72,
          95
        ],
        "url": "https://t.co/tzIQbA1KF3"
      }
    ],
    "user_mentions": [
      {
        "id": 167950310,
        "id_str": "167950310",
        "indices": [
          3,
          13
        ],
        "name": "Marcelo Trovato  \ud83d\udd34",
        "screen_name": "ProBu2010"
      }
    ]
  },
  "favorite_count": 0,
  "favorited": false,
  "geo": null,
  "id": 1043503068820705280,
  "id_str": "1043503068820705280",
  "in_reply_to_screen_name": null,
  "in_reply_to_status_id": null,
  "in_reply_to_status_id_str": null,
  "in_reply_to_user_id": null,
  "in_reply_to_user_id_str": null,
  "is_quote_status": false,
  "lang": "es",
  "metadata": {
    "iso_language_code": "es",
    "result_type": "recent"
  },
  "place": null,
  "possibly_sensitive": false,
  "retweet_count": 16,
  "retweeted": false,
  "retweeted_status": {
    "contributors": null,
    "coordinates": null,
    "created_at": "Fri Sep 21 22:00:01 +0000 2018",
    "entities": {
      "hashtags": [
        {
          "indices": [
            82,
            86
          ],
          "text": "G20"
        },
        {
          "indices": [
            87,
            91
          ],
          "text": "FMI"
        },
        {
          "indices": [
            92,
            98
          ],
          "text": "Macri"
        }
      ],
      "symbols": [],
      "urls": [
        {
          "display_url": "pronosticobursatil.com/#!/-editorial-\u2026",
          "expanded_url": "http://www.pronosticobursatil.com/#!/-editorial-semanal/",
          "indices": [
            57,
            80
          ],
          "url": "https://t.co/tzIQbA1KF3"
        },
        {
          "display_url": "twitter.com/i/web/status/1\u2026",
          "expanded_url": "https://twitter.com/i/web/status/1043258574984671232",
          "indices": [
            100,
            123
          ],
          "url": "https://t.co/A9NtNTAgAI"
        }
      ],
      "user_mentions": []
    },
    "favorite_count": 37,
    "favorited": false,
    "geo": null,
    "id": 1043258574984671232,
    "id_str": "1043258574984671232",
    "in_reply_to_screen_name": null,
    "in_reply_to_status_id": null,
    "in_reply_to_status_id_str": null,
    "in_reply_to_user_id": null,
    "in_reply_to_user_id_str": null,
    "is_quote_status": false,
    "lang": "es",
    "metadata": {
      "iso_language_code": "es",
      "result_type": "recent"
    },
    "place": null,
    "possibly_sensitive": false,
    "retweet_count": 16,
    "retweeted": false,
    "source": "<a href=\"http://twitter.com\" rel=\"nofollow\">Twitter Web Client</a>",
    "text": "NUESTRO NUEVO EDITORIAL\n\n\"NO ES PLATA, ES POR POL\u00cdTICA\"\n\nhttps://t.co/tzIQbA1KF3\n\n#G20 #FMI #Macri\u2026 https://t.co/A9NtNTAgAI",
    "truncated": true,
    "user": {
      "contributors_enabled": false,
      "created_at": "Sun Jul 18 00:10:16 +0000 2010",
      "default_profile": false,
      "default_profile_image": false,
      "description": "Creador de Pron\u00f3stico Burs\u00e1til\nAn\u00e1lisis de mercados con fines recreativos. Id\u00f3neo de los de antes. Editorialista.\nhttps://t.co/B78u4mx3Xe\u2026",
      "entities": {
        "description": {
          "urls": [
            {
              "display_url": "linkedin.com/in/marcelo-tro",
              "expanded_url": "http://linkedin.com/in/marcelo-tro",
              "indices": [
                114,
                137
              ],
              "url": "https://t.co/B78u4mx3Xe"
            }
          ]
        },
        "url": {
          "urls": [
            {
              "display_url": "pronosticobursatil.com",
              "expanded_url": "http://www.pronosticobursatil.com",
              "indices": [
                0,
                23
              ],
              "url": "https://t.co/IMU4vA86ew"
            }
          ]
        }
      },
      "favourites_count": 7716,
      "follow_request_sent": false,
      "followers_count": 12029,
      "following": false,
      "friends_count": 54,
      "geo_enabled": true,
      "has_extended_profile": true,
      "id": 167950310,
      "id_str": "167950310",
      "is_translation_enabled": false,
      "is_translator": false,
      "lang": "es",
      "listed_count": 218,
      "location": "C.A.B.A.  Argentina",
      "name": "Marcelo Trovato  \ud83d\udd34",
      "notifications": false,
      "profile_background_color": "022330",
      "profile_background_image_url": "http://abs.twimg.com/images/themes/theme16/bg.gif",
      "profile_background_image_url_https": "https://abs.twimg.com/images/themes/theme16/bg.gif",
      "profile_background_tile": false,
      "profile_banner_url": "https://pbs.twimg.com/profile_banners/167950310/1528460207",
      "profile_image_url": "http://pbs.twimg.com/profile_images/1029461063912366080/bZyK8Eyg_normal.jpg",
      "profile_image_url_https": "https://pbs.twimg.com/profile_images/1029461063912366080/bZyK8Eyg_normal.jpg",
      "profile_link_color": "0084B4",
      "profile_sidebar_border_color": "A8C7F7",
      "profile_sidebar_fill_color": "9CD6ED",
      "profile_text_color": "333333",
      "profile_use_background_image": true,
      "protected": false,
      "screen_name": "ProBu2010",
      "statuses_count": 32201,
      "time_zone": null,
      "translator_type": "none",
      "url": "https://t.co/IMU4vA86ew",
      "utc_offset": null,
      "verified": false
    }
  },
  "source": "<a href=\"http://twitter.com\" rel=\"nofollow\">Twitter Web Client</a>",
  "text": "RT @ProBu2010: NUESTRO NUEVO EDITORIAL\n\n\"NO ES PLATA, ES POR POL\u00cdTICA\"\n\nhttps://t.co/tzIQbA1KF3\n\n#G20 #FMI #Macri #MiFotoDeMauricio #SomosA\u2026",
  "truncated": false,
  "user": {
    "contributors_enabled": false,
    "created_at": "Tue Aug 14 15:27:53 +0000 2012",
    "default_profile": false,
    "default_profile_image": false,
    "description": "la vida es aquello que sucede mientras nos ocupamos de otra cosa (autora RM)",
    "entities": {
      "description": {
        "urls": []
      }
    },
    "favourites_count": 2222,
    "follow_request_sent": false,
    "followers_count": 124,
    "following": false,
    "friends_count": 493,
    "geo_enabled": true,
    "has_extended_profile": false,
    "id": 757351806,
    "id_str": "757351806",
    "is_translation_enabled": false,
    "is_translator": false,
    "lang": "es",
    "listed_count": 1,
    "location": "argentina",
    "name": "MY TWR\ud83c\udf4b\ud83d\udc0d",
    "notifications": false,
    "profile_background_color": "ACDED6",
    "profile_background_image_url": "http://abs.twimg.com/images/themes/theme18/bg.gif",
    "profile_background_image_url_https": "https://abs.twimg.com/images/themes/theme18/bg.gif",
    "profile_background_tile": false,
    "profile_image_url": "http://pbs.twimg.com/profile_images/442723776229175296/9ExPdNl0_normal.jpeg",
    "profile_image_url_https": "https://pbs.twimg.com/profile_images/442723776229175296/9ExPdNl0_normal.jpeg",
    "profile_link_color": "850476",
    "profile_sidebar_border_color": "FFFFFF",
    "profile_sidebar_fill_color": "F6F6F6",
    "profile_text_color": "333333",
    "profile_use_background_image": true,
    "protected": false,
    "screen_name": "SandraSes1",
    "statuses_count": 3518,
    "time_zone": null,
    "translator_type": "none",
    "url": null,
    "utc_offset": null,
    "verified": false
  }
}
============================================================
{
  "contributors": null,
  "coordinates": null,
  "created_at": "Sat Sep 22 14:10:55 +0000 2018",
  "entities": {
    "hashtags": [],
    "symbols": [],
    "urls": [],
    "user_mentions": [
      {
        "id": 141352592,
        "id_str": "141352592",
        "indices": [
          3,
          19
        ],
        "name": "Gisela Marziotta",
        "screen_name": "giselamarziotta"
      }
    ]
  },
  "favorite_count": 0,
  "favorited": false,
  "geo": null,
  "id": 1043502910053715968,
  "id_str": "1043502910053715968",
  "in_reply_to_screen_name": null,
  "in_reply_to_status_id": null,
  "in_reply_to_status_id_str": null,
  "in_reply_to_user_id": null,
  "in_reply_to_user_id_str": null,
  "is_quote_status": false,
  "lang": "es",
  "metadata": {
    "iso_language_code": "es",
    "result_type": "recent"
  },
  "place": null,
  "retweet_count": 2,
  "retweeted": false,
  "retweeted_status": {
    "contributors": null,
    "coordinates": null,
    "created_at": "Sat Sep 22 13:47:19 +0000 2018",
    "entities": {
      "hashtags": [],
      "symbols": [],
      "urls": [
        {
          "display_url": "twitter.com/i/web/status/1\u2026",
          "expanded_url": "https://twitter.com/i/web/status/1043496968633364482",
          "indices": [
            116,
            139
          ],
          "url": "https://t.co/PCNyiTsVIg"
        }
      ],
      "user_mentions": []
    },
    "favorite_count": 2,
    "favorited": false,
    "geo": null,
    "id": 1043496968633364482,
    "id_str": "1043496968633364482",
    "in_reply_to_screen_name": null,
    "in_reply_to_status_id": null,
    "in_reply_to_status_id_str": null,
    "in_reply_to_user_id": null,
    "in_reply_to_user_id_str": null,
    "is_quote_status": false,
    "lang": "es",
    "metadata": {
      "iso_language_code": "es",
      "result_type": "recent"
    },
    "place": null,
    "retweet_count": 2,
    "retweeted": false,
    "source": "<a href=\"http://twitter.com\" rel=\"nofollow\">Twitter Web Client</a>",
    "text": "\"Cae la producci\u00f3n agropecuaria, la producci\u00f3n industrial,  a inversi\u00f3n, el comercio, pero el  segmento financiero\u2026 https://t.co/PCNyiTsVIg",
    "truncated": true,
    "user": {
      "contributors_enabled": false,
      "created_at": "Fri May 07 21:35:10 +0000 2010",
      "default_profile": false,
      "default_profile_image": false,
      "description": "Periodista. #SiempreNoticias Lun a Vier 17 a 19  @CronicaTV. La Primera P\u00e1gina @AM750. Notas y entrevistas en @Pagina12  @Infobae. Nuevo libro #AmoresBajoFuego.",
      "entities": {
        "description": {
          "urls": []
        },
        "url": {
          "urls": [
            {
              "display_url": "facebook.com/giselamarziott\u2026",
              "expanded_url": "http://www.facebook.com/giselamarziottaperiodista",
              "indices": [
                0,
                23
              ],
              "url": "https://t.co/XYLiQJhQsV"
            }
          ]
        }
      },
      "favourites_count": 3417,
      "follow_request_sent": false,
      "followers_count": 45194,
      "following": false,
      "friends_count": 2693,
      "geo_enabled": true,
      "has_extended_profile": true,
      "id": 141352592,
      "id_str": "141352592",
      "is_translation_enabled": false,
      "is_translator": false,
      "lang": "es",
      "listed_count": 363,
      "location": "Buenos Aires, Argentina",
      "name": "Gisela Marziotta",
      "notifications": false,
      "profile_background_color": "000000",
      "profile_background_image_url": "http://abs.twimg.com/images/themes/theme5/bg.gif",
      "profile_background_image_url_https": "https://abs.twimg.com/images/themes/theme5/bg.gif",
      "profile_background_tile": false,
      "profile_banner_url": "https://pbs.twimg.com/profile_banners/141352592/1526135036",
      "profile_image_url": "http://pbs.twimg.com/profile_images/1035202689091739648/37eoFt6P_normal.jpg",
      "profile_image_url_https": "https://pbs.twimg.com/profile_images/1035202689091739648/37eoFt6P_normal.jpg",
      "profile_link_color": "037F0C",
      "profile_sidebar_border_color": "000000",
      "profile_sidebar_fill_color": "000000",
      "profile_text_color": "000000",
      "profile_use_background_image": false,
      "protected": false,
      "screen_name": "giselamarziotta",
      "statuses_count": 4685,
      "time_zone": null,
      "translator_type": "none",
      "url": "https://t.co/XYLiQJhQsV",
      "utc_offset": null,
      "verified": false
    }
  },
  "source": "<a href=\"http://twitter.com/download/iphone\" rel=\"nofollow\">Twitter for iPhone</a>",
  "text": "RT @giselamarziotta: \"Cae la producci\u00f3n agropecuaria, la producci\u00f3n industrial,  a inversi\u00f3n, el comercio, pero el  segmento financiero cre\u2026",
  "truncated": false,
  "user": {
    "contributors_enabled": false,
    "created_at": "Sat Jan 30 19:55:11 +0000 2010",
    "default_profile": false,
    "default_profile_image": false,
    "description": "Nac\u00ed 50 a\u00f1os despu\u00e9s...",
    "entities": {
      "description": {
        "urls": []
      },
      "url": {
        "urls": [
          {
            "display_url": "braso.com.ar",
            "expanded_url": "http://www.braso.com.ar",
            "indices": [
              0,
              22
            ],
            "url": "http://t.co/dB4s4PfBW8"
          }
        ]
      }
    },
    "favourites_count": 19,
    "follow_request_sent": false,
    "followers_count": 153,
    "following": false,
    "friends_count": 500,
    "geo_enabled": false,
    "has_extended_profile": false,
    "id": 109941745,
    "id_str": "109941745",
    "is_translation_enabled": false,
    "is_translator": false,
    "lang": "es",
    "listed_count": 2,
    "location": "Ituzaing\u00f3, Buenos Aires",
    "name": "Juan Manuel Bras\u00f3",
    "notifications": false,
    "profile_background_color": "000000",
    "profile_background_image_url": "http://abs.twimg.com/images/themes/theme14/bg.gif",
    "profile_background_image_url_https": "https://abs.twimg.com/images/themes/theme14/bg.gif",
    "profile_background_tile": false,
    "profile_image_url": "http://pbs.twimg.com/profile_images/1121935325/Ganador_I_normal.jpg",
    "profile_image_url_https": "https://pbs.twimg.com/profile_images/1121935325/Ganador_I_normal.jpg",
    "profile_link_color": "1F98C7",
    "profile_sidebar_border_color": "000000",
    "profile_sidebar_fill_color": "EFEFEF",
    "profile_text_color": "333333",
    "profile_use_background_image": false,
    "protected": false,
    "screen_name": "juanbraso",
    "statuses_count": 4400,
    "time_zone": null,
    "translator_type": "none",
    "url": "http://t.co/dB4s4PfBW8",
    "utc_offset": null,
    "verified": false
  }
}
============================================================
{
  "contributors": null,
  "coordinates": null,
  "created_at": "Sat Sep 22 14:09:42 +0000 2018",
  "entities": {
    "hashtags": [
      {
        "indices": [
          113,
          125
        ],
        "text": "Aftermarket"
      }
    ],
    "symbols": [],
    "urls": [],
    "user_mentions": [
      {
        "id": 400054955,
        "id_str": "400054955",
        "indices": [
          3,
          19
        ],
        "name": "Julian Yosovitch",
        "screen_name": "julianyosovitch"
      }
    ]
  },
  "favorite_count": 0,
  "favorited": false,
  "geo": null,
  "id": 1043502603613741056,
  "id_str": "1043502603613741056",
  "in_reply_to_screen_name": null,
  "in_reply_to_status_id": null,
  "in_reply_to_status_id_str": null,
  "in_reply_to_user_id": null,
  "in_reply_to_user_id_str": null,
  "is_quote_status": false,
  "lang": "es",
  "metadata": {
    "iso_language_code": "es",
    "result_type": "recent"
  },
  "place": null,
  "retweet_count": 5,
  "retweeted": false,
  "retweeted_status": {
    "contributors": null,
    "coordinates": null,
    "created_at": "Sat Sep 22 13:10:51 +0000 2018",
    "entities": {
      "hashtags": [
        {
          "indices": [
            92,
            104
          ],
          "text": "Aftermarket"
        }
      ],
      "symbols": [],
      "urls": [
        {
          "display_url": "twitter.com/i/web/status/1\u2026",
          "expanded_url": "https://twitter.com/i/web/status/1043487794319052801",
          "indices": [
            117,
            140
          ],
          "url": "https://t.co/1kDBnG699K"
        }
      ],
      "user_mentions": []
    },
    "favorite_count": 15,
    "favorited": false,
    "geo": null,
    "id": 1043487794319052801,
    "id_str": "1043487794319052801",
    "in_reply_to_screen_name": null,
    "in_reply_to_status_id": null,
    "in_reply_to_status_id_str": null,
    "in_reply_to_user_id": null,
    "in_reply_to_user_id_str": null,
    "is_quote_status": false,
    "lang": "es",
    "metadata": {
      "iso_language_code": "es",
      "result_type": "recent"
    },
    "place": null,
    "possibly_sensitive": false,
    "retweet_count": 5,
    "retweeted": false,
    "source": "<a href=\"http://twitter.com\" rel=\"nofollow\">Twitter Web Client</a>",
    "text": "gran audio para acompa\u00f1ar tu desayuno del finde, en el Gym o en la caminata del sabado.. \n\n\u2018#Aftermarket:  Calma en\u2026 https://t.co/1kDBnG699K",
    "truncated": true,
    "user": {
      "contributors_enabled": false,
      "created_at": "Fri Oct 28 12:52:11 +0000 2011",
      "default_profile": false,
      "default_profile_image": false,
      "description": "Msc Finance @UTDiTella Analista Mercados Fin. @ullua Redactor Mercados @cronistacom Conductor #Aftermarket VIE19hs @cultura979 Profe MFIN @UdeSa y @UTDiTella",
      "entities": {
        "description": {
          "urls": []
        },
        "url": {
          "urls": [
            {
              "display_url": "cronista.com/tags/after%20m\u2026",
              "expanded_url": "http://www.cronista.com/tags/after%20market",
              "indices": [
                0,
                23
              ],
              "url": "https://t.co/zXwd9EQEd7"
            }
          ]
        }
      },
      "favourites_count": 19505,
      "follow_request_sent": false,
      "followers_count": 15405,
      "following": false,
      "friends_count": 1786,
      "geo_enabled": true,
      "has_extended_profile": true,
      "id": 400054955,
      "id_str": "400054955",
      "is_translation_enabled": false,
      "is_translator": false,
      "lang": "es",
      "listed_count": 361,
      "location": "BUENOS AIRES ",
      "name": "Julian Yosovitch",
      "notifications": false,
      "profile_background_color": "131516",
      "profile_background_image_url": "http://abs.twimg.com/images/themes/theme14/bg.gif",
      "profile_background_image_url_https": "https://abs.twimg.com/images/themes/theme14/bg.gif",
      "profile_background_tile": true,
      "profile_banner_url": "https://pbs.twimg.com/profile_banners/400054955/1401661251",
      "profile_image_url": "http://pbs.twimg.com/profile_images/1000518955654635520/lM-DWWw0_normal.jpg",
      "profile_image_url_https": "https://pbs.twimg.com/profile_images/1000518955654635520/lM-DWWw0_normal.jpg",
      "profile_link_color": "1B95E0",
      "profile_sidebar_border_color": "EEEEEE",
      "profile_sidebar_fill_color": "EFEFEF",
      "profile_text_color": "333333",
      "profile_use_background_image": true,
      "protected": false,
      "screen_name": "julianyosovitch",
      "statuses_count": 54367,
      "time_zone": null,
      "translator_type": "none",
      "url": "https://t.co/zXwd9EQEd7",
      "utc_offset": null,
      "verified": false
    }
  },
  "source": "<a href=\"http://twitter.com/download/iphone\" rel=\"nofollow\">Twitter for iPhone</a>",
  "text": "RT @julianyosovitch: gran audio para acompa\u00f1ar tu desayuno del finde, en el Gym o en la caminata del sabado.. \n\n\u2018#Aftermarket:  Calma en el\u2026",
  "truncated": false,
  "user": {
    "contributors_enabled": false,
    "created_at": "Sun Jul 09 07:55:27 +0000 2017",
    "default_profile": false,
    "default_profile_image": false,
    "description": "Conquistador.",
    "entities": {
      "description": {
        "urls": []
      }
    },
    "favourites_count": 115,
    "follow_request_sent": false,
    "followers_count": 51,
    "following": false,
    "friends_count": 235,
    "geo_enabled": false,
    "has_extended_profile": false,
    "id": 883957757895999488,
    "id_str": "883957757895999488",
    "is_translation_enabled": false,
    "is_translator": false,
    "lang": "es",
    "listed_count": 1,
    "location": "",
    "name": "Facundo Velastiqui",
    "notifications": false,
    "profile_background_color": "000000",
    "profile_background_image_url": "http://abs.twimg.com/images/themes/theme1/bg.png",
    "profile_background_image_url_https": "https://abs.twimg.com/images/themes/theme1/bg.png",
    "profile_background_tile": false,
    "profile_banner_url": "https://pbs.twimg.com/profile_banners/883957757895999488/1499588707",
    "profile_image_url": "http://pbs.twimg.com/profile_images/883959892935102465/CtFXqVEp_normal.jpg",
    "profile_image_url_https": "https://pbs.twimg.com/profile_images/883959892935102465/CtFXqVEp_normal.jpg",
    "profile_link_color": "1B95E0",
    "profile_sidebar_border_color": "000000",
    "profile_sidebar_fill_color": "000000",
    "profile_text_color": "000000",
    "profile_use_background_image": false,
    "protected": false,
    "screen_name": "MrVelastiqui",
    "statuses_count": 322,
    "time_zone": null,
    "translator_type": "none",
    "url": null,
    "utc_offset": null,
    "verified": false
  }
}
============================================================
{
  "contributors": null,
  "coordinates": null,
  "created_at": "Sat Sep 22 14:09:04 +0000 2018",
  "entities": {
    "hashtags": [],
    "symbols": [],
    "urls": [
      {
        "display_url": "twitter.com/i/web/status/1\u2026",
        "expanded_url": "https://twitter.com/i/web/status/1043502441990381569",
        "indices": [
          117,
          140
        ],
        "url": "https://t.co/HkJpijl6II"
      }
    ],
    "user_mentions": [
      {
        "id": 3170981873,
        "id_str": "3170981873",
        "indices": [
          0,
          10
        ],
        "name": "Marcelo Bonelli",
        "screen_name": "BonelliOK"
      },
      {
        "id": 182923335,
        "id_str": "182923335",
        "indices": [
          11,
          22
        ],
        "name": "Radio Mitre",
        "screen_name": "radiomitre"
      },
      {
        "id": 58751559,
        "id_str": "58751559",
        "indices": [
          23,
          39
        ],
        "name": "Noticias Cuatro",
        "screen_name": "noticias_cuatro"
      },
      {
        "id": 19923515,
        "id_str": "19923515",
        "indices": [
          40,
          47
        ],
        "name": "ABC.es",
        "screen_name": "abc_es"
      },
      {
        "id": 51241574,
        "id_str": "51241574",
        "indices": [
          48,
          51
        ],
        "name": "The Associated Press",
        "screen_name": "AP"
      },
      {
        "id": 9235982,
        "id_str": "9235982",
        "indices": [
          52,
          67
        ],
        "name": "The Daily Telegraph",
        "screen_name": "dailytelegraph"
      },
      {
        "id": 133398816,
        "id_str": "133398816",
        "indices": [
          68,
          80
        ],
        "name": "Diego Brancatelli",
        "screen_name": "diegobranca"
      },
      {
        "id": 593789869,
        "id_str": "593789869",
        "indices": [
          81,
          93
        ],
        "name": "Roberto Navarro",
        "screen_name": "robdnavarro"
      },
      {
        "id": 177342424,
        "id_str": "177342424",
        "indices": [
          94,
          100
        ],
        "name": "V\u00edctor Hugo",
        "screen_name": "VHMok"
      }
    ]
  },
  "favorite_count": 0,
  "favorited": false,
  "geo": null,
  "id": 1043502441990381569,
  "id_str": "1043502441990381569",
  "in_reply_to_screen_name": "Albedo039Earth",
  "in_reply_to_status_id": 1043500197198929920,
  "in_reply_to_status_id_str": "1043500197198929920",
  "in_reply_to_user_id": 33889417,
  "in_reply_to_user_id_str": "33889417",
  "is_quote_status": false,
  "lang": "es",
  "metadata": {
    "iso_language_code": "es",
    "result_type": "recent"
  },
  "place": null,
  "possibly_sensitive": true,
  "retweet_count": 0,
  "retweeted": false,
  "source": "<a href=\"http://twitter.com/download/iphone\" rel=\"nofollow\">Twitter for iPhone</a>",
  "text": "@BonelliOK @radiomitre @noticias_cuatro @abc_es @AP @dailytelegraph @diegobranca @robdnavarro @VHMok El PERONISMO P\u2026 https://t.co/HkJpijl6II",
  "truncated": true,
  "user": {
    "contributors_enabled": false,
    "created_at": "Tue Apr 21 12:38:14 +0000 2009",
    "default_profile": false,
    "default_profile_image": false,
    "description": "Run. Anti K, anti-populismo, anti-banca, anti-peronismo, anti-villeros, anti-droga, anti-ignorantes, anti-vagos, anti-cumbia.",
    "entities": {
      "description": {
        "urls": []
      }
    },
    "favourites_count": 8535,
    "follow_request_sent": false,
    "followers_count": 1260,
    "following": false,
    "friends_count": 2800,
    "geo_enabled": true,
    "has_extended_profile": false,
    "id": 33889417,
    "id_str": "33889417",
    "is_translation_enabled": false,
    "is_translator": false,
    "lang": "es",
    "listed_count": 69,
    "location": "Earth ",
    "name": "Moon&Sun",
    "notifications": false,
    "profile_background_color": "022670",
    "profile_background_image_url": "http://abs.twimg.com/images/themes/theme1/bg.png",
    "profile_background_image_url_https": "https://abs.twimg.com/images/themes/theme1/bg.png",
    "profile_background_tile": true,
    "profile_banner_url": "https://pbs.twimg.com/profile_banners/33889417/1441274622",
    "profile_image_url": "http://pbs.twimg.com/profile_images/933207919679692800/wNj0dYjZ_normal.jpg",
    "profile_image_url_https": "https://pbs.twimg.com/profile_images/933207919679692800/wNj0dYjZ_normal.jpg",
    "profile_link_color": "3B94D9",
    "profile_sidebar_border_color": "000000",
    "profile_sidebar_fill_color": "181BBA",
    "profile_text_color": "7B8113",
    "profile_use_background_image": true,
    "protected": false,
    "screen_name": "Albedo039Earth",
    "statuses_count": 73224,
    "time_zone": null,
    "translator_type": "none",
    "url": null,
    "utc_offset": null,
    "verified": false
  }
}
